8569799165 MFGTMP_190425210001_ObjectsJoined.csv
4527214340 MFGTMP_190428200001_ObjectsJoined.csv
3441074653 MFGTMP_190429110001_ObjectsJoined.csv
4877921071 MFGTMP_190429190001_ObjectsJoined.csv
5299556472 MFGTMP_190430110001_ObjectsJoined.csv
6453998402 MFGTMP_190430160001_ObjectsJoined.csv
5521665516 MFGTMP_190502140001_ObjectsJoined.csv
5470407441 MFGTMP_190503140001_ObjectsJoined.csv
5064652074 MFGTMP_190506100001_ObjectsJoined.csv
3795832013 MFGTMP_190507160001_ObjectsJoined.csv
6120351206 MFGTMP_190507170001_ObjectsJoined.csv
5019469132 MFGTMP_190508100001_ObjectsJoined.csv
4807843088 MFGTMP_190508150001_ObjectsJoined.csv
4997208785 MFGTMP_190509100001_ObjectsJoined.csv