type, threads, speed
r5.8xlarge, 3, 1264188369.5
r5.8xlarge, 4, 1264092142.5
r5.8xlarge, 2, 1240762261.5
r5.8xlarge, 8, 1264198070.5
r5.8xlarge, 9, 1264168811
r5n.2xlarge, 8, 1780095946
r5n.2xlarge, 3, 1334819017.5
r5n.2xlarge, 4, 1564963997.5
r5.8xlarge, 6, 1264186114
r5n.2xlarge, 2, 1164199739
r5.8xlarge, 5, 1264170668
r5n.2xlarge, 5, 1607921116
r5n.2xlarge, 6, 1622849068.5
r5.8xlarge, 10, 1264186146
r5.8xlarge, 7, 1264183193.5
r5n.2xlarge, 10, 1701424368
r5n.2xlarge, 7, 1642697634.5
r5n.2xlarge, 9, 1681127175.5
r5.12xlarge, 3, 1516530321
r5.12xlarge, 10, 1517004769.5
r5.12xlarge, 8, 1517019153.5
r5.12xlarge, 4, 1516987180.5
r5.12xlarge, 2, 1490303827
r5.12xlarge, 1, 1101155463
r5.12xlarge, 6, 1516990406
r5.12xlarge, 5, 1517006349.5
r5.12xlarge, 7, 1517001367
r5n.large, 1, 377931303
r5.12xlarge, 9, 1516981156
r5n.large, 4, 437267017
r5n.large, 3, 422233772
r5n.large, 10, 413400877.5
r5n.large, 2, 428357854
r5n.large, 8, 431377347
r5n.large, 5, 448342029.5
r5n.large, 6, 438066383
r5n.large, 9, 443120932
r5n.large, 7, 439031973.5
r5.16xlarge, 1, 881743712
r5.16xlarge, 8, 2525241116
r5.16xlarge, 10, 2508360352
r5.16xlarge, 3, 1797350769
r5.16xlarge, 4, 2482022607
r5.16xlarge, 5, 2526682272
r5.16xlarge, 6, 2525959369
r5.16xlarge, 2, 1558592486
r5.16xlarge, 7, 2528126760
r5.2xlarge, 1, 800320642
r5.2xlarge, 3, 1264004705.5
r5.2xlarge, 4, 1264070653
r5.16xlarge, 9, 1536714426.5
r5.2xlarge, 10, 1264094830
r5.2xlarge, 8, 1264105414
r5.2xlarge, 5, 1264133669
r5.2xlarge, 6, 1263969929
r5.2xlarge, 2, 1180344958
r5.2xlarge, 9, 1264140908
r5.2xlarge, 7, 1264050898
r5.4xlarge, 1, 938071556.5
r5.4xlarge, 3, 1264185945
r5.4xlarge, 8, 1264171848
r5.4xlarge, 5, 1264175905
r5.4xlarge, 10, 1264125565
r5.4xlarge, 2, 1211953775
r5.4xlarge, 4, 1263971577
r5.4xlarge, 6, 1263975395
r5.4xlarge, 7, 1264194381.5
r5.24xlarge, 1, 904434238
r5.4xlarge, 9, 1264153298
r5.24xlarge, 8, 1885684320
r5.24xlarge, 3, 2191117305
r5.24xlarge, 4, 2975181841
r5.24xlarge, 10, 2985506326
r5.24xlarge, 2, 1641447975
r5.24xlarge, 6, 2985097035.5
r5.24xlarge, 5, 2699569042.5
r5.24xlarge, 7, 2985267899
r5.24xlarge, 9, 2984857269
r5.large, 3, 456765753
r5.large, 8, 437463290.5
r5.large, 1, 378032332
r5.large, 4, 436057675.5
r5.large, 2, 434609445
r5.large, 10, 433847479
r5.large, 6, 449253008
r5.large, 5, 456492941.5
r5.large, 7, 454771759
r5n.24xlarge, 1, 857211937
r5n.24xlarge, 4, 2030791753.5
r5n.24xlarge, 8, 4730557116.5
r5.large, 9, 446865279
r5n.24xlarge, 3, 2400810325
r5n.24xlarge, 10, 4647433203
r5n.24xlarge, 2, 1725427781.5
r5n.24xlarge, 7, 4174241232
r5n.xlarge, 1, 555445177
r5n.24xlarge, 5, 3517272597.5
r5n.xlarge, 3, 788591221
r5n.24xlarge, 6, 3630595158
r5n.24xlarge, 9, 4763634411.5
r5n.xlarge, 4, 841889850
r5n.xlarge, 8, 803755780
r5n.xlarge, 10, 824635567
r5n.xlarge, 6, 813927139
r5n.xlarge, 2, 701044227
r5n.xlarge, 9, 788134606
r5n.xlarge, 5, 789662554
r5n.8xlarge, 8, 4241359674
r5n.8xlarge, 4, 3119062997
r5n.8xlarge, 10, 4263770986
r5n.xlarge, 7, 830458464
r5n.8xlarge, 3, 2577542611.5
r5n.8xlarge, 2, 1829739687
r5n.8xlarge, 5, 3192709162
r5n.8xlarge, 7, 3708331677
r5n.8xlarge, 6, 3708106068
r5n.8xlarge, 9, 4261461959
r5n.12xlarge, 3, 2463702319.5
r5n.12xlarge, 1, 1120333623
r5n.12xlarge, 10, 5022784293
r5n.12xlarge, 5, 3675847672
r5n.12xlarge, 2, 1756956853
r5n.12xlarge, 4, 2374647059
r5n.12xlarge, 8, 4715135984
r5n.12xlarge, 6, 4291789722.5
r5n.12xlarge, 9, 5442570268
r5n.12xlarge, 7, 4923495405
r5n.16xlarge, 8, 4304960924
r5n.16xlarge, 4, 2181573123
r5n.16xlarge, 10, 4581923737.5
r5n.16xlarge, 2, 1582327513
r5n.16xlarge, 3, 2227032758
r5n.16xlarge, 1, 807442338
r5n.16xlarge, 6, 3786722301.5
r5n.16xlarge, 5, 2311171868.5
r5n.16xlarge, 9, 4332403336
r5n.16xlarge, 7, 4077411547.5
r5.xlarge, 3, 905905491
r5.xlarge, 1, 601966624
r5.xlarge, 8, 961466398.5
r5.xlarge, 2, 814355699.5
r5.xlarge, 10, 977006162
r5.xlarge, 4, 909005935
r5.xlarge, 5, 925298130
r5.xlarge, 7, 953020847
r5n.4xlarge, 3, 2016680782.5
r5n.4xlarge, 1, 920775718
r5.xlarge, 6, 942604219.5
r5n.4xlarge, 4, 2282841360
r5.xlarge, 9, 950526726
r5n.4xlarge, 10, 3021756509
r5n.4xlarge, 8, 2672385889
r5n.4xlarge, 2, 937764410
r5n.4xlarge, 7, 2563484939
r5n.4xlarge, 5, 2523124977
r5n.4xlarge, 6, 2611178710
r5n.4xlarge, 9, 2877219940.5
